..............................
----------------------------------------------------------------------
Ran 30 tests in 0.127s

OK
Name             Stmts   Miss Branch BrPart  Cover   Missing
------------------------------------------------------------
Collatz.py          41      0     16      0   100%
TestCollatz.py     121      0      0      0   100%
------------------------------------------------------------
TOTAL              162      0     16      0   100%
