1 1 0
10 1 0
9999 1 0
9999 9998 0
9999 9999 0
1 10 20
100 200 125
201 210 89
900 1000 174
1 2 2
2 3 8
4 5 6
1 9999 262
9998 9999 92
101 103 88
50 60 113
111 223 125
8888 9999 260
36 64 113
90 9000 262
12 9998 262
450 789 171
543 8932 262
345 8056 262
1232 2048 180
23 509 144
781 782 122
123 321 131
9000 9007 141
3453 3455 57
3453 9284 262
4 9 20
3 123 119
90 753 171
78 79 36
978 8888 262
801 893 179
234 2342 183
12 1212 182
1 17 20
1 9998 262
2 9999 262
3 9999 262
4 9999 262
9997 9998 180
234 8723 262
3245 3453 181
234 2342 183
985 9874 262
9 90 116
90 900 179
900 9000 262
9 9000 262
3 13 20
3 23 21
3 33 112
3 43 112
3 53 112
1 99 119
100 199 125
199 200 120
200 299 128
300 399 144
400 499 142
500 599 137
600 699 145
700 799 171
800 899 179
900 999 174
1000 1099 169
1100 1199 182
1200 1299 177
1300 1399 177
1400 1499 172
1500 1599 167
1600 1699 180
1700 1799 180
1800 1899 175
1900 1999 175
2000 2099 157
2100 2199 170
2200 2299 183
2300 2399 183
2400 2499 209
2500 2599 178
2600 2699 191
2700 2799 173
2800 2849 173
2850 2899 173
2900 2949 217
2950 2999 142
3000 3049 155
3050 3100 186
9990 9999 180
100 9999 262
7 9993 262
90 9384 262
888 999 174
777 999 179
222 444 144
555 999 179
12 24 21
24 36 112
36 48 110
48 60 113
60 72 108
72 84 116
90 1011 179
141 414 144
9897 9898 242
23 27 112
